{
  "cviceni": {
    "version": {
      "global": "<%= version %>",
      "content": 2
    },
    "katalog": [
      "test",
      "public"
    ],
    "language": "cs",
    "slug": "co-tvrdil-atlas",
    "nazev": "Co tvrdil atlas?",
    "autor": [
      "Martin Váňa"
    ],
    "klicovaSlova": [
      "důsledky 2. světové války",
      "propaganda",
      "atlas map",
      "příčiny a důsledky",
      "vidíme pod povrch pramene",
      "1938",
      "1945",
      "1968"
    ],
    "anotace": {
      "ucitel": "V rámci cvičení žáci analyzují mapový list z Historického atlasu revolučního hnutí z 50. let, který ilustruje proměny hranice Československé republiky po druhé světové válce. Zásluhu za poválečné změny hranic připisuje vítězství Sovětského svazu a dává jim jednoznačně kladný význam: úprava státních hranic měla zabezpečit československý stát. Žáci se učí rozpoznat dobovou propagandu a konfrontují ji s pozdějším historickým vývojem (okupace v srpnu 1968).",
      "verejna": "Dvě mapy. Jedna zobrazuje Československo v roce 1938, druhá v roce 1945. Proč se tyto mapy ocitly v atlasu vedle sebe? O čem měly přesvědčit čtenáře? A přesvědčí vás?"
    },
    "trvani": 30,
    "funkce": [
      "lupa",
      "cteni",
      "text",
      "svg"
    ],
    "pdf": {
      "doporucenyPostup": "co-tvrdil-atlas.pdf"
    },
    "uvodniObrazek": "co-tvrdil-atlas/pic-05-1280w.jpg",
    "id": 62
  },
  "slajd": [
    {
      "zadani": {
        "hlavni": "Prohlédněte si list z atlasu s dvojicí map.",
        "rozsirujici": ""
      },
      "napoveda": {
        "aktivity": [
          "lupa"
        ],
        "text": "Při kliknutí levým tlačítkem do obrazu lupa přiblíží část obrazu ve výřezu."
      },
      "prameny": [
        "co-tvrdil-atlas/pic-00-1280w.jpg"
      ]
    },
    {
      "class": [
        "half-slide-previous"
      ],
      "zadani": {
        "hlavni": "Označte a popište prvky, které by vám mohly napovědět, co je tématem map.",
        "rozsirujici": ""
      },
      "napoveda": {
        "aktivity": [
          "svg"
        ],
        "text": "Kliknutím na snímek levým tlačítkem myši označujete bod. Nakliknutím na bod pravým tlačítkem otevřete menu s nabídkou úkonů: změnit barvu bodu, (T) doplnit textový komentář, (X) smazat nakliknutý objekt."
      },
      "svg": {
        "soubory": [
          {
            "id": "svg-1",
            "soubor": "co-tvrdil-atlas/pic-00-1280w.jpg",
            "funkce": [
              "text",
              "znacky"
            ]
          }
        ]
      }
    },
    {
      "class": [
        "half-slide-active"
      ],
      "zadani": {
        "hlavni": "Zodpovězte otázky.",
        "rozsirujici": ""
      },
      "napoveda": {
        "aktivity": [
          "text"
        ],
        "text": "Do boxu pro text zapisujete odpověď na otázku, nebo jiný komentář (dle zadání)."
      },
      "uzivatelskyText": {
        "otazky": [
          {
            "id": "text-1",
            "zadani": "Kdy podle vás list s dvojicí map vznikl?",
            "instrukce": "Myslím si, že…",
            "minDelka": 4,
            "maxDelka": 200
          },
          {
            "id": "text-2",
            "zadani": "Co chce dvojice map sdělit?",
            "instrukce": "Myslím si, že…",
            "minDelka": 10,
            "maxDelka": 400
          }
        ]
      }
    },
    {
      "class": [
        "half-slide-previous"
      ],
      "zadani": {
        "hlavni": "Přečtěte si popisek k mapě a doplňte analýzu o nové informace.",
        "rozsirujici": ""
      },
      "napoveda": {
        "aktivity": [
          "svg"
        ],
        "text": "Kliknutím na snímek levým tlačítkem myši označujete bod. Nakliknutím na bod pravým tlačítkem otevřete menu s nabídkou úkonů: změnit barvu bodu, (T) doplnit textový komentář, (X) smazat nakliknutý objekt."
      },
      "popisky": [
        "Vítězství Sovětské armády v roce 1945 zabezpečilo naše hranice.<br>Zdroj: Historický atlas revolučního hnutí, Praha 1956"
      ],
      "svg": {
        "soubory": [
          {
            "id": "svg-2",
            "soubor": "co-tvrdil-atlas/pic-01-1280w.jpg",
            "duplikovat": [
              "svg-1"
            ],
            "funkce": [
              "text",
              "znacky"
            ]
          }
        ]
      }
    },
    {
      "class": [
        "half-slide-active"
      ],
      "zadani": {
        "hlavni": "Doplňte či upravte své odpovědi.",
        "rozsirujici": ""
      },
      "napoveda": {
        "aktivity": [
          "text"
        ],
        "text": "Do boxu pro text zapisujete odpověď na otázku, nebo jiný komentář (dle zadání)."
      },
      "uzivatelskyText": {
        "otazky": [
          {
            "id": "text-3",
            "zadani": "Kdy list s dvojicí map vznikl?",
            "instrukce": "",
            "minDelka": 4,
            "maxDelka": 200,
            "duplikovat": [
              "text-1"
            ]
          },
          {
            "id": "text-4",
            "zadani": "Co chce dvojice map sdělit?",
            "instrukce": "",
            "minDelka": 10,
            "maxDelka": 400,
            "duplikovat": [
              "text-2"
            ]
          }
        ]
      }
    },
    {
      "class": [
        "half-slide-previous"
      ],
      "zadani": {
        "hlavni": "Přečtěte si dobový doprovodný text ke dvojici map. Modře označte pasáže obsahující fakta, žlutě pasáže vyjadřující hodnocení.",
        "rozsirujici": ""
      },
      "napoveda": {
        "aktivity": [
          "text-editor"
        ],
        "text": "Levým tlačítkem myši zabarvíte zvolené slovo nebo slovní spojení. Otevře se vám nabídka, v níž zvolíte označovanou kategorii. Křížkem lze označení smazat."
      },
      "textovyEditor": {
        "galerie": [
          {
            "soubor": "co-tvrdil-atlas/pic-02-1024h.jpg"
          },
          {
            "soubor": "co-tvrdil-atlas/pic-03-1280w.jpg"
          }
        ],
        "texty": [
          {
            "id": 0,
            "text": "text-00",
            "funkce": "zvyraznovani",
            "menu": [
              {
                "title": "Fakta",
                "commandName": "fakta",
                "classes": "text-blue",
                "command": "toggle-class",
                "commandOptions": {
                  "toggleClass": "node-selected node-text-blue",
                  "closeBtn": true,
                  "comments": false,
                  "commentsClass": "text-orange"
                }
              },
              {
                "title": "Hodnocení",
                "commandName": "hodnoceni",
                "classes": "text-yellow",
                "command": "toggle-class",
                "commandOptions": {
                  "toggleClass": "node-selected node-text-yellow",
                  "closeBtn": true,
                  "comments": false,
                  "commentsClass": "text-orange"
                }
              }
            ]
          }
        ]
      },
      "popisky": [
        "Doprovodný text k mapě Vítězství Sovětské armády v roce 1945 zabezpečilo naše hranice (redakčně kráceno).<br>Zdroj: Historický atlas revolučního hnutí, Praha 1956"
      ]
    },
    {
      "class": [
        "half-slide-active"
      ],
      "zadani": {
        "hlavni": "Zodpovězte otázku.",
        "rozsirujici": ""
      },
      "napoveda": {
        "aktivity": [
          "text"
        ],
        "text": "Do boxu pro text zapisujete odpověď na otázku, nebo jiný komentář (dle zadání)."
      },
      "uzivatelskyText": {
        "otazky": [
          {
            "id": "text-5",
            "zadani": "Co podle atlasu zabezpečilo československou hranici?",
            "instrukce": "Myslím si, že…",
            "minDelka": 10,
            "maxDelka": 400
          }
        ]
      }
    },
    {
      "zadani": {
        "hlavni": "Prohlédněte si mapu postupu vojsk Varšavské smlouvy při okupaci Československa v srpnu 1968.",
        "rozsirujici": ""
      },
      "napoveda": {
        "aktivity": [
          "lupa"
        ],
        "text": "Při kliknutí levým tlačítkem do obrazu lupa přiblíží část obrazu ve výřezu."
      },
      "prameny": [
        "co-tvrdil-atlas/pic-04-1280w.jpg"
      ],
      "popisky": [
        "Mapa postupu vojsk Varšavské smlouvy při okupaci Československa v srpnu 1968.<br>Zdroj: Martin Váňa (ÚSTR), 2019"
      ]
    },
    {
      "zadani": {
        "hlavni": "Zodpovězte otázky.",
        "rozsirujici": ""
      },
      "napoveda": {
        "aktivity": [
          "text"
        ],
        "text": "Do boxu pro text zapisujete odpověď na otázku, nebo jiný komentář (dle zadání)."
      },
      "uzivatelskyText": {
        "layout": "velka-galerie",
        "galerie": [
          {
            "typ": "svg",
            "objekt": {
              "id": "svg-2-duplicate",
              "soubor": "co-tvrdil-atlas/pic-00-1280w.jpg",
              "duplikovat": [
                "svg-2"
              ]
            }
          },
          {
            "soubor": "co-tvrdil-atlas/pic-03-1280w.jpg"
          },
          {
            "soubor": "co-tvrdil-atlas/pic-04-1280w.jpg"
          }
        ],
        "otazky": [
          {
            "id": "text-6",
            "zadani": "Skutečně poválečné změny hranic zabezpečily československý stát? Svou odpověď zdůvodněte.",
            "instrukce": "Myslím si, že…",
            "minDelka": 10,
            "maxDelka": 400
          },
          {
            "id": "text-7",
            "zadani": "Proč podle vás vznikla dvojice map zobrazující změny státních hranic? O čem měla přesvědčit čtenáře atlasu?",
            "instrukce": "Myslím si, že…",
            "minDelka": 10,
            "maxDelka": 400
          }
        ]
      }
    }
  ]
}