{
  "cviceni": {
    "version": {
      "global": "<%= version %>",
      "content": 4
    },
    "katalog": [
      "test",
      "public"
    ],
    "language": "cs",
    "slug": "k-cemu-jsou-nam-vyroci",
    "nazev": "K čemu jsou nám výročí?",
    "autor": [
      "Švardová Petra"
    ],
    "klicovaSlova": [
      "pád komunistického režimu",
      "občanská společnost",
      "historický význam",
      "příčiny a důsledky",
      "uspořádáváme zdroje"
    ],
    "anotace": {
      "ucitel": "Cvičení se zaměřuje na historická výročí, která předcházela 17. listopadu 1989. Vede žáky k tomu, aby přemýšleli nad významem připomínky Palachova týdne, výročí srpnové okupace a založení Československa v době, kdy nebyly oficiálně připomínány. Cílem cvičení je pochopení, že 17. listopad je jedním z řady připomínaných výročí, při nichž se konaly různé protistátní protesty.",
      "verejna": "Co dělají lidé na fotografiích? Seznamte se s událostmi, které předcházely sametové revoluci v Československu, a objevte sílu výročí. Proč se lidé scházeli v čase výročí a proti čemu demonstrovali? Jaký význam pro nás mají výročí dnes?"
    },
    "trvani": 45,
    "funkce": [
      "lupa",
      "cteni",
      "text",
      "svg",
      "pretahovani"
    ],
    "pdf": {
      "doporucenyPostup": "k-cemu-jsou-nam-vyroci.pdf"
    },
    "uvodniObrazek": "k-cemu-jsou-nam-vyroci/pic-00-800w.jpg",
    "id": 58
  },
  "slajd": [
    {
      "zadani": {
        "hlavni": "Prohlédněte si fotografii.",
        "rozsirujici": ""
      },
      "napoveda": {
        "aktivity": [
          "lupa"
        ],
        "text": "Při kliknutí levým tlačítkem do obrazu lupa přiblíží část obrazu ve výřezu."
      },
      "prameny": [
        "k-cemu-jsou-nam-vyroci/pic-00-800w.jpg"
      ],
      "popisky": [
        "Foto Jan Šibík. Zdroj: archiv autora"
      ]
    },
    {
      "zadani": {
        "hlavni": "Prohlédněte si fotografie.",
        "rozsirujici": ""
      },
      "napoveda": {
        "aktivity": [
          "lupa"
        ],
        "text": "Při kliknutí levým tlačítkem do obrazu lupa přiblíží část obrazu ve výřezu."
      },
      "prameny": [
        "k-cemu-jsou-nam-vyroci/pic-01-1024w.jpg",
        "k-cemu-jsou-nam-vyroci/pic-02-1024w.jpg",
        "k-cemu-jsou-nam-vyroci/pic-03-1024w.jpg"
      ],
      "popisky": [
        "Foto Michal Doležal. Zdroj: ČTK",
        "Foto neznámý autor. Zdroj: ČTK",
        "Foto Petr Josek. Zdroj: ČTK"
      ]
    },
    {
      "zadani": {
        "hlavni": "Analýza fotografií.",
        "rozsirujici": "Červeně označte prvky, které vám mohou pomoci rozpoznat roční období. Modře označte jednání osob. Všechny označené prvky popište."
      },
      "napoveda": {
        "aktivity": [
          "svg"
        ],
        "text": "Kliknutím na obrázek levým tlačítkem myši označujete bod. Nakliknutím na bod pravým tlačítkem otevřete menu s nabídkou úkonů: změnit barvu bodu, (T) doplnit textový komentář, (X) smazat nakliknutý objekt."
      },
      "svg": {
        "soubory": [
          {
            "id": "svg-1",
            "soubor": "k-cemu-jsou-nam-vyroci/pic-01-800w.jpg",
            "funkce": [
              "text",
              "znacky"
            ]
          },
          {
            "id": "svg-2",
            "soubor": "k-cemu-jsou-nam-vyroci/pic-02-800w.jpg",
            "funkce": [
              "text",
              "znacky"
            ]
          },
          {
            "id": "svg-3",
            "soubor": "k-cemu-jsou-nam-vyroci/pic-03-800w.jpg",
            "funkce": [
              "text",
              "znacky"
            ]
          }
        ]
      },
      "popisky": [
        "Foto Michal Doležal. Zdroj: ČTK",
        "Foto neznámý autor. Zdroj: ČTK",
        "Foto Petr Josek. Zdroj: ČTK"
      ]
    },
    {
      "zadani": {
        "hlavni": "Přečtěte si úryvek z dobového tisku.",
        "rozsirujici": "V přepisu textu vyznačte čas, místo události a vzpomínané výročí."
      },
      "napoveda": {
        "aktivity": [
          "lupa",
          "text-editor"
        ],
        "text": "Levým tlačítkem myši zabarvíte zvolené slovo nebo slovní spojení. Otevře se vám nabídka, v níž zvolíte označovanou kategorii. Křížkem lze označení smazat."
      },
      "textovyEditor": {
        "galerie": [
          {
            "soubor": "k-cemu-jsou-nam-vyroci/pic-04-1024h.jpg"
          }
        ],
        "texty": [
          {
            "id": "text-editor-1",
            "text": "text-00",
            "funkce": "zvyraznovani",
            "menu": [
              {
                "title": "Čas",
                "commandName": "cas",
                "classes": "text-yellow",
                "command": "toggle-class",
                "commandOptions": {
                  "toggleClass": "node-selected node-text-yellow",
                  "closeBtn": true,
                  "comments": false,
                  "commentsClass": "text-yellow"
                }
              },
              {
                "title": "Místo",
                "commandName": "misto",
                "classes": "text-green",
                "command": "toggle-class",
                "commandOptions": {
                  "toggleClass": "node-selected node-text-green",
                  "closeBtn": true,
                  "comments": false,
                  "commentsClass": "text-green"
                }
              },
              {
                "title": "Výročí",
                "commandName": "vyroci",
                "classes": "text-gray",
                "command": "toggle-class",
                "commandOptions": {
                  "toggleClass": "node-selected node-text-gray",
                  "closeBtn": true,
                  "comments": false,
                  "commentsClass": "text-gray"
                }
              }
            ]
          }
        ]
      },
      "popisky": [
        "Zdroj: Rudé právo, 17. ledna 1989"
      ]
    },
    {
      "zadani": {
        "hlavni": "Přečtěte si úryvek z dobového tisku.",
        "rozsirujici": "V přepisu textu vyznačte čas, místo události a vzpomínané výročí."
      },
      "napoveda": {
        "aktivity": [
          "lupa",
          "text-editor"
        ],
        "text": "Levým tlačítkem myši zabarvíte zvolené slovo nebo slovní spojení. Otevře se vám nabídka, v níž zvolíte označovanou kategorii. Křížkem lze označení smazat."
      },
      "textovyEditor": {
        "galerie": [
          {
            "soubor": "k-cemu-jsou-nam-vyroci/pic-05-1024h.jpg"
          }
        ],
        "texty": [
          {
            "id": "text-editor-3",
            "text": "text-02",
            "funkce": "zvyraznovani",
            "menu": [
              {
                "title": "Čas",
                "commandName": "cas",
                "classes": "text-yellow",
                "command": "toggle-class",
                "commandOptions": {
                  "toggleClass": "node-selected node-text-yellow",
                  "closeBtn": true,
                  "comments": false,
                  "commentsClass": "text-yellow"
                }
              },
              {
                "title": "Místo",
                "commandName": "misto",
                "classes": "text-green",
                "command": "toggle-class",
                "commandOptions": {
                  "toggleClass": "node-selected node-text-green",
                  "closeBtn": true,
                  "comments": false,
                  "commentsClass": "text-green"
                }
              },
              {
                "title": "Výročí",
                "commandName": "vyroci",
                "classes": "text-gray",
                "command": "toggle-class",
                "commandOptions": {
                  "toggleClass": "node-selected node-text-gray",
                  "closeBtn": true,
                  "comments": false,
                  "commentsClass": "text-gray"
                }
              }
            ]
          }
        ]
      },
      "popisky": [
        "Zdroj: Rudé právo, 22. srpna 1989"
      ]
    },
    {
      "zadani": {
        "hlavni": "Přečtěte si úryvek z dobového tisku.",
        "rozsirujici": "V přepisu textu vyznačte čas, místo události a vzpomínané výročí."
      },
      "napoveda": {
        "aktivity": [
          "lupa",
          "text-editor"
        ],
        "text": "Levým tlačítkem myši zabarvíte zvolené slovo nebo slovní spojení. Otevře se vám nabídka, v níž zvolíte označovanou kategorii. Křížkem lze označení smazat."
      },
      "textovyEditor": {
        "galerie": [
          {
            "soubor": "k-cemu-jsou-nam-vyroci/pic-06-1280w.jpg"
          }
        ],
        "texty": [
          {
            "id": "text-editor-2",
            "text": "text-01",
            "funkce": "zvyraznovani",
            "menu": [
              {
                "title": "Čas",
                "commandName": "cas",
                "classes": "text-yellow",
                "command": "toggle-class",
                "commandOptions": {
                  "toggleClass": "node-selected node-text-yellow",
                  "closeBtn": true,
                  "comments": false,
                  "commentsClass": "text-yellow"
                }
              },
              {
                "title": "Místo",
                "commandName": "misto",
                "classes": "text-green",
                "command": "toggle-class",
                "commandOptions": {
                  "toggleClass": "node-selected node-text-green",
                  "closeBtn": true,
                  "comments": false,
                  "commentsClass": "text-green"
                }
              },
              {
                "title": "Výročí",
                "commandName": "vyroci",
                "classes": "text-gray",
                "command": "toggle-class",
                "commandOptions": {
                  "toggleClass": "node-selected node-text-gray",
                  "closeBtn": true,
                  "comments": false,
                  "commentsClass": "text-gray"
                }
              }
            ]
          }
        ]
      },
      "popisky": [
        "Zdroj: Rudé právo, 31. října 1988"
      ]
    },
    {
      "zadani": {
        "hlavni": "Přiřaďte fotografie protestů k popiskám a seřaďte podle data výročí v kalendářním roce.",
        "rozsirujici": "Fotografie můžete přetahovat myší."
      },
      "napoveda": {
        "aktivity": [
          "razeni"
        ],
        "text": "Kliknutím na fotografie a tahem myši přesuňte fotografii na požadovanou pozici mezi ostatní položky."
      },
      "novaTabulka": {
        "pretahovani": {
          "id": "pretahovani-1",
          "items": [
            {
              "medium": "svg",
              "objekt": {
                "id": "svg-1-duplicated",
                "soubor": "k-cemu-jsou-nam-vyroci/pic-01-800w.jpg",
                "duplikovat": [
                  "svg-1"
                ]
              }
            },
            {
              "medium": "svg",
              "objekt": {
                "id": "svg-2-duplicated",
                "soubor": "k-cemu-jsou-nam-vyroci/pic-02-800w.jpg",
                "duplikovat": [
                  "svg-2"
                ]
              }
            },
            {
              "medium": "svg",
              "objekt": {
                "id": "svg-3-duplicated",
                "soubor": "k-cemu-jsou-nam-vyroci/pic-03-800w.jpg",
                "duplikovat": [
                  "svg-3"
                ]
              }
            }
          ]
        },
        "tabulky": [
          {
            "id": "nova-tabulka-1",
            "columns": [
              {
                "id": "text-1-col",
                "name": "Text č.1",
                "type": "",
                "bg-color": "",
                "values": []
              },
              {
                "id": "text-3-col",
                "name": "Text č.2",
                "type": "",
                "bg-color": "",
                "values": []
              },
              {
                "id": "text-2-col",
                "name": "Text č.3",
                "type": "",
                "bg-color": "",
                "values": []
              }
            ],
            "rows": [
              {
                "id": "obrazek",
                "name": "",
                "type": {
                  "name": "drop",
                  "number": "1",
                  "type": "obrazek"
                },
                "bg-color": "",
                "values": []
              }
            ]
          },
          {
            "id": "nova-tabulka-2",
            "dataFrom": [
              "text-editor-1",
              "text-editor-2",
              "text-editor-3"
            ],
            "columns": [
              {
                "id": "text-1-col",
                "name": "",
                "type": {
                  "name": "dup-text",
                  "type": "tag",
                  "textId": "text-editor-1"
                },
                "bg-color": "",
                "values": []
              },
              {
                "id": "text-3-col",
                "name": "",
                "type": {
                  "name": "dup-text",
                  "type": "tag",
                  "textId": "text-editor-3"
                },
                "bg-color": "",
                "values": []
              },
              {
                "id": "text-2-col",
                "name": "",
                "type": {
                  "name": "dup-text",
                  "type": "tag",
                  "textId": "text-editor-2"
                },
                "bg-color": "",
                "values": []
              }
            ],
            "rows": [
              {
                "id": "cas",
                "name": "Čas",
                "type": "",
                "bg-color": "",
                "values": []
              },
              {
                "id": "misto",
                "name": "Místo",
                "type": "",
                "bg-color": "",
                "values": []
              },
              {
                "id": "vyroci",
                "name": "Výročí",
                "type": "",
                "bg-color": "",
                "values": []
              }
            ]
          }
        ]
      }
    },
    {
      "zadani": {
        "hlavni": "Jaké další protesty následovaly?",
        "rozsirujici": ""
      },
      "napoveda": {
        "aktivity": [
          "text"
        ],
        "text": "Do boxu pro text zapisujete odpověď na otázku, nebo jiný komentář (dle zadání)."
      },
      "uzivatelskyText": {
        "layout": "velka-galerie",
        "galerie": [
          {
            "soubor": "k-cemu-jsou-nam-vyroci/pic-00-800w.jpg"
          }
        ],
        "otazky": [
          {
            "id": "text-1",
            "zadani": "ČAS",
            "instrukce": "Myslím si, že…",
            "maxDelka": 100,
            "vyska": 2
          },
          {
            "id": "text-2",
            "zadani": "MÍSTO",
            "instrukce": "Myslím si, že…",
            "maxDelka": 100,
            "vyska": 2
          },
          {
            "id": "text-3",
            "zadani": "VÝROČÍ",
            "instrukce": "Myslím si, že…",
            "maxDelka": 100,
            "vyska": 2
          }
        ]
      }
    },
    {
      "zadani": {
        "hlavni": "Zodpovězte na otázku.",
        "rozsirujici": ""
      },
      "napoveda": {
        "aktivity": [
          "text"
        ],
        "text": "Do boxu pro text zapisujete odpověď na otázku, nebo jiný komentář (dle zadání)."
      },
      "uzivatelskyText": {
        "otazky": [
          {
            "id": "text-4",
            "zadani": "Jaká výročí podle Vás slouží k protestům dnes? Čeho se tyto protesty týkají?",
            "instrukce": "Myslím si, že…",
            "maxDelka": 300,
            "vyska": 6
          }
        ]
      }
    }
  ]
}