{
  "cviceni": {
    "version": {
      "global": "<%= version %>",
      "content": 1
    },
    "katalog": ["test"],
    "language": "cs",
    "slug": "proc-upravili-reportaz-rtjf",
    "nazev": "Proč upravili Reportáž?",
    "autor": [
      "Kamil Činátl",
      "Čeněk Pýcha"
    ],
    "klicovaSlova": [
      "Československo 1948-1989", "kult hrdiny", "cenzura", "historický význam", "uspořádáváme zdroje"
    ],
    "anotace": {
      "ucitel": "Žáci se seznámí s Reportáží, psanou na oprátce. Svědectví Julia Fučíka z nacistického vězení hrálo důležitou roli v kulturní politice Československa v letech 1948–1989. Srovnávají cenzurovanou a původní verzi závěru Reportáže. Snaží se uspořádat informace a odhalit záměry úprav tohoto díla.",
      "verejna": "Znáte Reportáž, psanou na oprátce? Víte, že patří mezi nejpřekládanější české knihy? Komunisté upravili již první vydání tohoto svědectví z nacistického vězení. Zkuste porovnat různé verze Reportáže, abyste vypátrali, proč byl text upravován."
    },
    "trvani": 45,
    "funkce": [
      "lupa",
      "cteni",
      "text",
      "svg"
    ],
    "pdf": {
      "doporucenyPostup": "proc-upravili-reportaz-rtjf.pdf"
    },
    "uvodniObrazek": "proc-upravili-reportaz-rtjf/pic-00-1024h.jpg",
    "id": 87
  },
  "slajd": [
    {
      "zadani": {
        "hlavni": "Kdo byl Julius Fučík? Využijte informace z výstavy.",
        "rozsirujici": "Pomocí zvětšování a zmenšování určete výstižnost charakteristik."
      },
      "napoveda": {
        "aktivity": ["word-cloud"],
        "text": "Klikáním na znamenka -/+ zmenšujte či zvyšujete důležitost."
      },
      "klicovaSlova": {
        "galerie": [
          {
            "soubor": "proc-upravili-reportaz-rtjf/pic-00-1024h.jpg",
            "popisek": "Julius Fučík, Max Švabinský, 1950. Zdroj: Archiv Národního muzea"
          }
        ],
        "klicovaSlova": [
          {
            "id": "klicova-slova-1",
            "funkce": "wordcloud",
            "tagy": [
              {
                "text": "hrdina"
              },
              {
                "text": "zrádce"
              },
              {
                "text": "spisovatel"
              },
              {
                "text": "komunista"
              },
              {
                "text": "novinář"
              },
              {
                "text": "ideolog"
              },
              {
                "text": "objekt kultu"
              },
              {
                "text": "rozporuplná osobnost"
              }
            ]
          }
        ]
      }
    },
    {
      "zadani": {
        "hlavni": "Srovnejte dvě verze Reportáže.",
        "rozsirujici": "Kreslením vyznačte rozdíly v textu."
      },
      "napoveda": {
        "aktivity": ["svg"],
        "text": "Tahem myši levým tlačítkem kreslíte do obrazu. Nakliknutím na nakreslený tvar pravým tlačítkem otevřete menu s nabídkou úkonů: (T) doplnit textový komentář, (X) smazat nakliknutý objekt."
      },
      "svg": {
        "soubory": [
          {
            "id": "svg-1",
            "soubor": "proc-upravili-reportaz-rtjf/pic-01-1024w.jpg",
            "barvy": ["blue"],
            "funkce": [
              "kresleni"
            ]
          },
          {
            "id": "svg-2",
            "soubor": "proc-upravili-reportaz-rtjf/pic-02-1024w.jpg",
            "barvy": ["blue"],
            "funkce": [
              "kresleni"
            ]
          }
        ]
      },
      "popisky": [
        "Julius Fučík: Reportáž psaná na oprátce. Praha Svoboda 1945.",
        "Julius Fučík: Reportáž, psaná na oprátce. První kritické okomentované vydání. Praha Torst 1995."
      ]
    },
    {
      "class": [
        "half-slide-previous"
      ],
      "zadani": {
        "hlavni": "Vyznačte pasáže, ve kterých můžete hledat odpověď na otázky, co řekl Fučík a proč vypovídal.",
        "rozsirujici": ""
      },
      "napoveda": {
        "aktivity": ["svg"],
        "text": "Tahem myši levým tlačítkem kreslíte do obrazu. Nakliknutím na nakreslený tvar pravým tlačítkem otevřete menu s nabídkou úkonů: změnit barvu tvaru, (T) doplnit textový komentář, (X) smazat nakliknutý objekt."
      },
      "svg": {
        "soubory": [
          {
            "id": "svg-3",
            "soubor": "proc-upravili-reportaz-rtjf/pic-02-1024w.jpg",
            "funkce": [
              "text",
              "kresleni"
            ]
          }
        ]
      },
      "popisky": ["Julius Fučík: Reportáž, psaná na oprátce. První kritické okomentované vydání. Praha Torst 1995."]
    },
    {
      "class": [
        "half-slide-active"
      ],
      "zadani": {
        "hlavni": "Proč upravili Reportáž?",
        "rozsirujici": ""
      },
      "napoveda": {
        "aktivity": [
          "text"
        ],
        "text": "Do boxu pro text zapisujete odpověď na otázku, nebo jiný komentář (dle zadání)."
      },
      "uzivatelskyText": {
        "otazky": [
          {
            "id": "text-1",
            "zadani": "",
            "instrukce": "Myslím si, že…",
            "maxDelka": 999
          }
        ]
      }
    }
  ]
}
